…
``` r
pcr_mod %>% 
  MSEP %>% # extract the object VALIDATION: RMSEP
  .[[1]] %>% # extract the array from the object
  .[2,,] %>% # extract the CV MESP(numeric) from the array
  as.list %>% as.tibble() %>% # coerce to tibble
  gather(key = 'ncomp', value = 'msep', `(Intercept)`: `228 comps`) %>% 
  arrange(msep) # sort by MSEP to find the best M
```

    ## # A tibble: 229 x 2
    ##    ncomp      msep
    ##    <chr>     <dbl>
    ##  1 157 comps 0.490
    ##  2 154 comps 0.491
    ##  3 158 comps 0.491
    ##  4 153 comps 0.492
    ##  5 160 comps 0.492
    ##  6 149 comps 0.492
    ##  7 159 comps 0.492
    ##  8 155 comps 0.492
    ##  9 148 comps 0.493
    ## 10 150 comps 0.493
    ## # ... with 219 more rows
…
